<svg width="120" height="80" viewBox="0 0 120 80" fill="none" xmlns="http://www.w3.org/2000/svg">
<path d="M0.901385 40L60 0.600926L119.099 40L60 79.3991L0.901385 40Z" stroke="black"/>
<path d="M59.1406 40.3594C59.1406 42.5885 58.7656 44.5365 58.0156 46.2031C57.2656 47.8594 56.2031 49.125 54.8281 50C53.4531 50.875 51.849 51.3125 50.0156 51.3125C48.224 51.3125 46.6354 50.875 45.25 50C43.8646 49.1146 42.7865 47.8594 42.0156 46.2344C41.2552 44.599 40.8646 42.7083 40.8438 40.5625V38.9219C40.8438 36.7344 41.224 34.8021 41.9844 33.125C42.7448 31.4479 43.8177 30.1667 45.2031 29.2812C46.599 28.3854 48.1927 27.9375 49.9844 27.9375C51.8073 27.9375 53.4115 28.3802 54.7969 29.2656C56.1927 30.1406 57.2656 31.4167 58.0156 33.0938C58.7656 34.7604 59.1406 36.7031 59.1406 38.9219V40.3594ZM56.1562 38.8906C56.1562 36.1927 55.6146 34.125 54.5312 32.6875C53.4479 31.2396 51.9323 30.5156 49.9844 30.5156C48.0885 30.5156 46.5938 31.2396 45.5 32.6875C44.4167 34.125 43.8594 36.125 43.8281 38.6875V40.3594C43.8281 42.974 44.375 45.0312 45.4688 46.5312C46.5729 48.0208 48.0885 48.7656 50.0156 48.7656C51.9531 48.7656 53.4531 48.0625 54.5156 46.6562C55.5781 45.2396 56.125 43.2135 56.1562 40.5781V38.8906ZM71.9844 41.7969H66.6406V51H63.625V28.25H71.1562C73.7188 28.25 75.6875 28.8333 77.0625 30C78.4479 31.1667 79.1406 32.8646 79.1406 35.0938C79.1406 36.5104 78.7552 37.7448 77.9844 38.7969C77.224 39.849 76.1615 40.6354 74.7969 41.1562L80.1406 50.8125V51H76.9219L71.9844 41.7969ZM66.6406 39.3438H71.25C72.7396 39.3438 73.9219 38.9583 74.7969 38.1875C75.6823 37.4167 76.125 36.3854 76.125 35.0938C76.125 33.6875 75.7031 32.6094 74.8594 31.8594C74.026 31.1094 72.8177 30.7292 71.2344 30.7188H66.6406V39.3438Z" fill="black"/>
</svg>
