<svg width="25" height="25" viewBox="0 0 25 25" fill="none" xmlns="http://www.w3.org/2000/svg">
<path d="M14.9414 7.32422C14.9414 5.97801 13.8462 4.88281 12.5 4.88281C11.1538 4.88281 10.0586 5.97801 10.0586 7.32422C10.0586 8.67043 11.1538 9.76562 12.5 9.76562C13.8462 9.76562 14.9414 8.67043 14.9414 7.32422ZM11.0352 7.32422C11.0352 6.51646 11.6922 5.85938 12.5 5.85938C13.3078 5.85938 13.9648 6.51646 13.9648 7.32422C13.9648 8.13198 13.3078 8.78906 12.5 8.78906C11.6922 8.78906 11.0352 8.13198 11.0352 7.32422Z" fill="black"/>
<path d="M12.9885 7.32422C12.9885 7.05452 12.7699 6.83594 12.5002 6.83594H12.4998C12.2301 6.83594 12.0117 7.05452 12.0117 7.32422C12.0117 7.59392 12.2305 7.8125 12.5002 7.8125C12.7699 7.8125 12.9885 7.59392 12.9885 7.32422Z" fill="black"/>
<path d="M5.37109 19.6289H3.90625V18.1152C3.90625 17.8459 4.12521 17.627 4.39453 17.627H5.37109C5.64079 17.627 5.85938 17.4084 5.85938 17.1387C5.85938 16.869 5.64079 16.6504 5.37109 16.6504H4.39453C3.58677 16.6504 2.92969 17.3075 2.92969 18.1152V19.6289H1.46484C0.657082 19.6289 0 20.286 0 21.0938V23.5352C0 24.3429 0.657082 25 1.46484 25H5.37109C6.17886 25 6.83594 24.3429 6.83594 23.5352V21.0938C6.83594 20.286 6.17886 19.6289 5.37109 19.6289ZM5.85938 23.5352C5.85938 23.8045 5.64022 24.0234 5.37109 24.0234H1.46484C1.19553 24.0234 0.976562 23.8045 0.976562 23.5352V21.0938C0.976562 20.8246 1.19553 20.6055 1.46484 20.6055H5.37109C5.64022 20.6055 5.85938 20.8246 5.85938 21.0938V23.5352Z" fill="black"/>
<path d="M23.5352 19.6289H22.0703V18.1152C22.0703 17.3075 21.4132 16.6504 20.6055 16.6504H12.9883V14.6484H13.6393C13.909 14.6484 14.1275 14.4299 14.1275 14.1602V12.9967C14.5567 12.8738 14.9689 12.7029 15.3597 12.4857L16.1827 13.3087C16.2743 13.4003 16.3986 13.4518 16.5281 13.4518C16.6576 13.4518 16.7818 13.4003 16.8734 13.3087L18.4845 11.6974C18.6752 11.5068 18.6752 11.1977 18.4845 11.0069L17.6615 10.1839C17.8785 9.79309 18.0494 9.38091 18.1723 8.95176H19.3359C19.6054 8.95176 19.8242 8.73318 19.8242 8.46348V6.18477C19.8242 5.91507 19.6054 5.69649 19.3359 5.69649H18.1725C18.0498 5.26733 17.8787 4.85516 17.6615 4.46415L18.4845 3.64132C18.576 3.54977 18.6275 3.4256 18.6275 3.29609C18.6275 3.16658 18.576 3.04241 18.4845 2.95086L16.8734 1.33953C16.7818 1.24798 16.6574 1.19648 16.5279 1.19648C16.3984 1.19648 16.2743 1.24798 16.1827 1.33953L15.3599 2.16255C14.9689 1.9453 14.5567 1.77441 14.1275 1.65157V0.488281C14.1275 0.218582 13.909 0 13.6393 0H11.3607C11.091 0 10.8725 0.218582 10.8725 0.488281V1.65176C10.4433 1.7746 10.0311 1.9455 9.64031 2.16274L8.8171 1.33953C8.72555 1.24798 8.60138 1.19667 8.47187 1.19667C8.34236 1.19667 8.21819 1.24798 8.12664 1.33953L6.51531 2.95086C6.32477 3.1414 6.32477 3.45058 6.51531 3.64132L7.33852 4.46453C7.12147 4.85516 6.95057 5.26752 6.82774 5.69668H5.66406C5.39436 5.69668 5.17578 5.91526 5.17578 6.18496V8.46348C5.17578 8.73318 5.39436 8.95176 5.66406 8.95176H6.82755C6.95019 9.38091 7.12109 9.79309 7.33833 10.1841L6.51531 11.0069C6.32477 11.1977 6.32477 11.5068 6.51531 11.6976L8.12664 13.3089C8.21819 13.4005 8.34236 13.4518 8.47187 13.4518C8.60138 13.4518 8.72555 13.4005 8.8171 13.3089L9.64012 12.4859C10.0309 12.7031 10.4431 12.874 10.8723 12.9969V14.1602C10.8723 14.4299 11.0909 14.6484 11.3605 14.6484H12.0115V16.6504H9.76562C9.49593 16.6504 9.27734 16.869 9.27734 17.1387C9.27734 17.4084 9.49593 17.627 9.76562 17.627H12.0115V19.6289H10.5469C9.73911 19.6289 9.08203 20.286 9.08203 21.0938V23.5352C9.08203 24.3429 9.73911 25 10.5469 25H14.4529C15.2607 25 15.9178 24.3429 15.9178 23.5352V21.0938C15.9178 20.286 15.2607 19.6289 14.4529 19.6289H12.9881V17.627H20.6055C20.8746 17.627 21.0938 17.8459 21.0938 18.1152V19.6289H19.6289C18.8211 19.6289 18.1641 20.286 18.1641 21.0938V23.5352C18.1641 24.202 18.6153 24.7852 19.2616 24.9531C19.5227 25.021 19.7893 24.8644 19.857 24.6035C19.9249 24.3423 19.7683 24.0759 19.5074 24.008C19.2913 23.9519 19.1406 23.7574 19.1406 23.5352V21.0938C19.1406 20.8246 19.3596 20.6055 19.6289 20.6055H23.5352C23.8043 20.6055 24.0234 20.8246 24.0234 21.0938V23.5352C24.0234 23.7576 23.8724 23.9519 23.6563 24.008C23.3953 24.0759 23.2388 24.3423 23.3065 24.6035C23.3635 24.8232 23.5617 24.9691 23.7787 24.9691C23.8194 24.9691 23.8607 24.964 23.9017 24.9533C24.5483 24.7854 24.9998 24.2022 24.9998 23.5352V21.0938C25 20.286 24.3429 19.6289 23.5352 19.6289ZM11.463 12.1384C10.8809 12.0134 10.3312 11.7857 9.82952 11.4611C9.63631 11.3359 9.38187 11.363 9.21898 11.5257L8.47187 12.273L7.55119 11.3523L8.2983 10.605C8.46119 10.4424 8.48808 10.1879 8.36296 9.99451C8.03852 9.49306 7.81059 8.94337 7.68585 8.36124C7.6376 8.13618 7.43866 7.9752 7.20844 7.9752H6.15234V6.67324H7.20882C7.43904 6.67324 7.63798 6.51226 7.68623 6.28719C7.81097 5.70488 8.03871 5.15537 8.36315 4.65393C8.48827 4.46072 8.46138 4.20628 8.29849 4.04339L7.55119 3.29609L8.47187 2.37541L9.21917 3.12271C9.38206 3.2856 9.6365 3.31249 9.82971 3.18737C10.3313 2.86293 10.8809 2.635 11.4632 2.51007C11.6882 2.46181 11.849 2.26288 11.849 2.03266V0.976562H13.151V2.03266C13.151 2.26288 13.3118 2.46181 13.537 2.51007C14.1191 2.63481 14.6688 2.86274 15.1705 3.18737C15.3637 3.3123 15.6181 3.28541 15.7808 3.12252L16.5281 2.37541L17.4488 3.29609L16.7015 4.0432C16.5388 4.20609 16.5119 4.46053 16.6368 4.65374C16.9615 5.15537 17.1894 5.70488 17.3141 6.28719C17.3624 6.51226 17.5613 6.67305 17.7916 6.67305H18.8477V7.9752H17.7912C17.561 7.9752 17.362 8.13599 17.3138 8.36124C17.189 8.94337 16.9613 9.49306 16.6368 9.99451C16.5117 10.1877 16.5386 10.4422 16.7015 10.6049L17.4488 11.3522L16.5281 12.2728L15.7808 11.5255C15.6179 11.3628 15.3635 11.3358 15.1703 11.4609C14.6687 11.7855 14.1191 12.0134 13.537 12.1382C13.3118 12.1864 13.151 12.3854 13.151 12.6156V13.6719H11.849V12.6158C11.849 12.3856 11.6882 12.1866 11.463 12.1384V12.1384ZM14.9414 21.0938V23.5352C14.9414 23.8043 14.7224 24.0234 14.4531 24.0234H10.5469C10.2776 24.0234 10.0586 23.8043 10.0586 23.5352V21.0938C10.0586 20.8244 10.2776 20.6055 10.5469 20.6055H14.4531C14.7224 20.6055 14.9414 20.8246 14.9414 21.0938Z" fill="black"/>
<path d="M7.56855 16.6504H7.56817C7.29847 16.6504 7.08008 16.869 7.08008 17.1387C7.08008 17.4084 7.29885 17.627 7.56855 17.627C7.83825 17.627 8.05683 17.4084 8.05683 17.1387C8.05683 16.869 7.83825 16.6504 7.56855 16.6504Z" fill="black"/>
<path d="M21.582 24.0234H21.5816C21.3119 24.0234 21.0935 24.242 21.0935 24.5117C21.0935 24.7814 21.3123 25 21.582 25C21.8517 25 22.0703 24.7814 22.0703 24.5117C22.0703 24.242 21.8517 24.0234 21.582 24.0234Z" fill="black"/>
</svg>
